992
-32 32 -24 880
992
-40 56 -112 -56 696
-40 16 -16 -32 856
40 -32 24 -64 -32 -64 688
144 -32 -24 56 -104 -32 552
-24 -40 -40 -72 -80 -88 600
-32 -64 -16 24 -16 16 -16 -16 728
128 -16 832
328 -320 328
